[
  {
    "text": "Main Navigation",
    "heading": "true"
  },
  {
    "text": "Dashboard",
    "sref": "#",
    "icon": "icon-speedometer",
    "submenu":[
      {
        "text": "Revenue",
        "sref": "app.revenue"
      },
      {
        "text": "Tasks",
        "sref": "app.tasks"
      },
      {
        "text": "Users",
        "sref": "app.users"
      }
    ]
  }
]
